{
	"page": 1,
	"per_page": 15,
	"photos": [
		{
			"id": 164634,
			"width": 4537,
			"height": 3403,
			"url": "https://www.pexels.com/photo/mercedes-benz-parked-in-a-row-164634/",
			"photographer": "Pixabay",
			"photographer_url": "https://www.pexels.com/@pixabay",
			"photographer_id": 2659,
			"avg_color": "#66585E",
			"src": {
				"original": "https://images.pexels.com/photos/164634/pexels-photo-164634.jpeg",
				"large2x": "https://images.pexels.com/photos/164634/pexels-photo-164634.jpeg?auto=compress&cs=tinysrgb&dpr=2&h=650&w=940",
				"large": "https://images.pexels.com/photos/164634/pexels-photo-164634.jpeg?auto=compress&cs=tinysrgb&h=650&w=940",
				"medium": "https://images.pexels.com/photos/164634/pexels-photo-164634.jpeg?auto=compress&cs=tinysrgb&h=350",
				"small": "https://images.pexels.com/photos/164634/pexels-photo-164634.jpeg?auto=compress&cs=tinysrgb&h=130",
				"portrait": "https://images.pexels.com/photos/164634/pexels-photo-164634.jpeg?auto=compress&cs=tinysrgb&fit=crop&h=1200&w=800",
				"landscape": "https://images.pexels.com/photos/164634/pexels-photo-164634.jpeg?auto=compress&cs=tinysrgb&fit=crop&h=627&w=1200",
				"tiny": "https://images.pexels.com/photos/164634/pexels-photo-164634.jpeg?auto=compress&cs=tinysrgb&dpr=1&fit=crop&h=200&w=280"
			},
			"alt": "Mercedes Benz Parked in a Row"
		},
		{
			"id": 120049,
			"width": 4912,
			"height": 2760,
			"url": "https://www.pexels.com/photo/white-mercedes-benz-cars-120049/",
			"photographer": "Mike B",
			"photographer_url": "https://www.pexels.com/@mikebirdy",
			"photographer_id": 20649,
			"avg_color": "#2A4362",
			"src": {
				"original": "https://images.pexels.com/photos/120049/pexels-photo-120049.jpeg",
				"large2x": "https://images.pexels.com/photos/120049/pexels-photo-120049.jpeg?auto=compress&cs=tinysrgb&dpr=2&h=650&w=940",
				"large": "https://images.pexels.com/photos/120049/pexels-photo-120049.jpeg?auto=compress&cs=tinysrgb&h=650&w=940",
				"medium": "https://images.pexels.com/photos/120049/pexels-photo-120049.jpeg?auto=compress&cs=tinysrgb&h=350",
				"small": "https://images.pexels.com/photos/120049/pexels-photo-120049.jpeg?auto=compress&cs=tinysrgb&h=130",
				"portrait": "https://images.pexels.com/photos/120049/pexels-photo-120049.jpeg?auto=compress&cs=tinysrgb&fit=crop&h=1200&w=800",
				"landscape": "https://images.pexels.com/photos/120049/pexels-photo-120049.jpeg?auto=compress&cs=tinysrgb&fit=crop&h=627&w=1200",
				"tiny": "https://images.pexels.com/photos/120049/pexels-photo-120049.jpeg?auto=compress&cs=tinysrgb&dpr=1&fit=crop&h=200&w=280"
			},
			"alt": "White Mercedes Benz Cars"
		},
		{
			"id": 1034662,
			"width": 3489,
			"height": 4361,
			"url": "https://www.pexels.com/photo/photography-of-roadway-during-dusk-1034662/",
			"photographer": "Jiarong Deng",
			"photographer_url": "https://www.pexels.com/@visionmonkeyandy",
			"photographer_id": 388754,
			"avg_color": "#2E3436",
			"src": {
				"original": "https://images.pexels.com/photos/1034662/pexels-photo-1034662.jpeg",
				"large2x": "https://images.pexels.com/photos/1034662/pexels-photo-1034662.jpeg?auto=compress&cs=tinysrgb&dpr=2&h=650&w=940",
				"large": "https://images.pexels.com/photos/1034662/pexels-photo-1034662.jpeg?auto=compress&cs=tinysrgb&h=650&w=940",
				"medium": "https://images.pexels.com/photos/1034662/pexels-photo-1034662.jpeg?auto=compress&cs=tinysrgb&h=350",
				"small": "https://images.pexels.com/photos/1034662/pexels-photo-1034662.jpeg?auto=compress&cs=tinysrgb&h=130",
				"portrait": "https://images.pexels.com/photos/1034662/pexels-photo-1034662.jpeg?auto=compress&cs=tinysrgb&fit=crop&h=1200&w=800",
				"landscape": "https://images.pexels.com/photos/1034662/pexels-photo-1034662.jpeg?auto=compress&cs=tinysrgb&fit=crop&h=627&w=1200",
				"tiny": "https://images.pexels.com/photos/1034662/pexels-photo-1034662.jpeg?auto=compress&cs=tinysrgb&dpr=1&fit=crop&h=200&w=280"
			},
			"alt": "Photography of Roadway During Dusk"
		},
		{
			"id": 337909,
			"width": 3264,
			"height": 2448,
			"url": "https://www.pexels.com/photo/red-ferrari-337909/",
			"photographer": "Pavlo Luchkovski",
			"photographer_url": "https://www.pexels.com/@pashal",
			"photographer_id": 25343,
			"avg_color": "#76564D",
			"src": {
				"original": "https://images.pexels.com/photos/337909/pexels-photo-337909.jpeg",
				"large2x": "https://images.pexels.com/photos/337909/pexels-photo-337909.jpeg?auto=compress&cs=tinysrgb&dpr=2&h=650&w=940",
				"large": "https://images.pexels.com/photos/337909/pexels-photo-337909.jpeg?auto=compress&cs=tinysrgb&h=650&w=940",
				"medium": "https://images.pexels.com/photos/337909/pexels-photo-337909.jpeg?auto=compress&cs=tinysrgb&h=350",
				"small": "https://images.pexels.com/photos/337909/pexels-photo-337909.jpeg?auto=compress&cs=tinysrgb&h=130",
				"portrait": "https://images.pexels.com/photos/337909/pexels-photo-337909.jpeg?auto=compress&cs=tinysrgb&fit=crop&h=1200&w=800",
				"landscape": "https://images.pexels.com/photos/337909/pexels-photo-337909.jpeg?auto=compress&cs=tinysrgb&fit=crop&h=627&w=1200",
				"tiny": "https://images.pexels.com/photos/337909/pexels-photo-337909.jpeg?auto=compress&cs=tinysrgb&dpr=1&fit=crop&h=200&w=280"
			},
			"alt": "Red Ferrari"
		},
		{
			"id": 1545743,
			"width": 2133,
			"height": 3327,
			"url": "https://www.pexels.com/photo/red-vehicle-on-the-road-1545743/",
			"photographer": "Yurii Hlei",
			"photographer_url": "https://www.pexels.com/@mayday",
			"photographer_id": 566994,
			"avg_color": "#5D5550",
			"src": {
				"original": "https://images.pexels.com/photos/1545743/pexels-photo-1545743.jpeg",
				"large2x": "https://images.pexels.com/photos/1545743/pexels-photo-1545743.jpeg?auto=compress&cs=tinysrgb&dpr=2&h=650&w=940",
				"large": "https://images.pexels.com/photos/1545743/pexels-photo-1545743.jpeg?auto=compress&cs=tinysrgb&h=650&w=940",
				"medium": "https://images.pexels.com/photos/1545743/pexels-photo-1545743.jpeg?auto=compress&cs=tinysrgb&h=350",
				"small": "https://images.pexels.com/photos/1545743/pexels-photo-1545743.jpeg?auto=compress&cs=tinysrgb&h=130",
				"portrait": "https://images.pexels.com/photos/1545743/pexels-photo-1545743.jpeg?auto=compress&cs=tinysrgb&fit=crop&h=1200&w=800",
				"landscape": "https://images.pexels.com/photos/1545743/pexels-photo-1545743.jpeg?auto=compress&cs=tinysrgb&fit=crop&h=627&w=1200",
				"tiny": "https://images.pexels.com/photos/1545743/pexels-photo-1545743.jpeg?auto=compress&cs=tinysrgb&dpr=1&fit=crop&h=200&w=280"
			},
			"alt": "Red Vehicle on the Road"
		},
		{
			"id": 70912,
			"width": 5381,
			"height": 3363,
			"url": "https://www.pexels.com/photo/black-coupes-70912/",
			"photographer": "Torsten Dettlaff",
			"photographer_url": "https://www.pexels.com/@tdcat",
			"photographer_id": 9438,
			"avg_color": "#414141",
			"src": {
				"original": "https://images.pexels.com/photos/70912/pexels-photo-70912.jpeg",
				"large2x": "https://images.pexels.com/photos/70912/pexels-photo-70912.jpeg?auto=compress&cs=tinysrgb&dpr=2&h=650&w=940",
				"large": "https://images.pexels.com/photos/70912/pexels-photo-70912.jpeg?auto=compress&cs=tinysrgb&h=650&w=940",
				"medium": "https://images.pexels.com/photos/70912/pexels-photo-70912.jpeg?auto=compress&cs=tinysrgb&h=350",
				"small": "https://images.pexels.com/photos/70912/pexels-photo-70912.jpeg?auto=compress&cs=tinysrgb&h=130",
				"portrait": "https://images.pexels.com/photos/70912/pexels-photo-70912.jpeg?auto=compress&cs=tinysrgb&fit=crop&h=1200&w=800",
				"landscape": "https://images.pexels.com/photos/70912/pexels-photo-70912.jpeg?auto=compress&cs=tinysrgb&fit=crop&h=627&w=1200",
				"tiny": "https://images.pexels.com/photos/70912/pexels-photo-70912.jpeg?auto=compress&cs=tinysrgb&dpr=1&fit=crop&h=200&w=280"
			},
			"alt": "Black Coupes"
		},
		{
			"id": 919073,
			"width": 5472,
			"height": 3648,
			"url": "https://www.pexels.com/photo/photography-of-gray-sports-car-919073/",
			"photographer": "Albin Berlin",
			"photographer_url": "https://www.pexels.com/@albinberlin",
			"photographer_id": 91719,
			"avg_color": "#070606",
			"src": {
				"original": "https://images.pexels.com/photos/919073/pexels-photo-919073.jpeg",
				"large2x": "https://images.pexels.com/photos/919073/pexels-photo-919073.jpeg?auto=compress&cs=tinysrgb&dpr=2&h=650&w=940",
				"large": "https://images.pexels.com/photos/919073/pexels-photo-919073.jpeg?auto=compress&cs=tinysrgb&h=650&w=940",
				"medium": "https://images.pexels.com/photos/919073/pexels-photo-919073.jpeg?auto=compress&cs=tinysrgb&h=350",
				"small": "https://images.pexels.com/photos/919073/pexels-photo-919073.jpeg?auto=compress&cs=tinysrgb&h=130",
				"portrait": "https://images.pexels.com/photos/919073/pexels-photo-919073.jpeg?auto=compress&cs=tinysrgb&fit=crop&h=1200&w=800",
				"landscape": "https://images.pexels.com/photos/919073/pexels-photo-919073.jpeg?auto=compress&cs=tinysrgb&fit=crop&h=627&w=1200",
				"tiny": "https://images.pexels.com/photos/919073/pexels-photo-919073.jpeg?auto=compress&cs=tinysrgb&dpr=1&fit=crop&h=200&w=280"
			},
			"alt": "Photography of Gray Sports Car"
		},
		{
			"id": 248747,
			"width": 5472,
			"height": 3648,
			"url": "https://www.pexels.com/photo/close-up-of-electric-lamp-against-black-background-248747/",
			"photographer": "Pixabay",
			"photographer_url": "https://www.pexels.com/@pixabay",
			"photographer_id": 2659,
			"avg_color": "#050504",
			"src": {
				"original": "https://images.pexels.com/photos/248747/pexels-photo-248747.jpeg",
				"large2x": "https://images.pexels.com/photos/248747/pexels-photo-248747.jpeg?auto=compress&cs=tinysrgb&dpr=2&h=650&w=940",
				"large": "https://images.pexels.com/photos/248747/pexels-photo-248747.jpeg?auto=compress&cs=tinysrgb&h=650&w=940",
				"medium": "https://images.pexels.com/photos/248747/pexels-photo-248747.jpeg?auto=compress&cs=tinysrgb&h=350",
				"small": "https://images.pexels.com/photos/248747/pexels-photo-248747.jpeg?auto=compress&cs=tinysrgb&h=130",
				"portrait": "https://images.pexels.com/photos/248747/pexels-photo-248747.jpeg?auto=compress&cs=tinysrgb&fit=crop&h=1200&w=800",
				"landscape": "https://images.pexels.com/photos/248747/pexels-photo-248747.jpeg?auto=compress&cs=tinysrgb&fit=crop&h=627&w=1200",
				"tiny": "https://images.pexels.com/photos/248747/pexels-photo-248747.jpeg?auto=compress&cs=tinysrgb&dpr=1&fit=crop&h=200&w=280"
			},
			"alt": "Close Up of Electric Lamp Against Black Background"
		},
		{
			"id": 799443,
			"width": 3504,
			"height": 5256,
			"url": "https://www.pexels.com/photo/forced-perspective-photography-of-cars-running-on-road-below-smartphone-799443/",
			"photographer": "Matheus Bertelli",
			"photographer_url": "https://www.pexels.com/@bertellifotografia",
			"photographer_id": 177895,
			"avg_color": "#4B4A47",
			"src": {
				"original": "https://images.pexels.com/photos/799443/pexels-photo-799443.jpeg",
				"large2x": "https://images.pexels.com/photos/799443/pexels-photo-799443.jpeg?auto=compress&cs=tinysrgb&dpr=2&h=650&w=940",
				"large": "https://images.pexels.com/photos/799443/pexels-photo-799443.jpeg?auto=compress&cs=tinysrgb&h=650&w=940",
				"medium": "https://images.pexels.com/photos/799443/pexels-photo-799443.jpeg?auto=compress&cs=tinysrgb&h=350",
				"small": "https://images.pexels.com/photos/799443/pexels-photo-799443.jpeg?auto=compress&cs=tinysrgb&h=130",
				"portrait": "https://images.pexels.com/photos/799443/pexels-photo-799443.jpeg?auto=compress&cs=tinysrgb&fit=crop&h=1200&w=800",
				"landscape": "https://images.pexels.com/photos/799443/pexels-photo-799443.jpeg?auto=compress&cs=tinysrgb&fit=crop&h=627&w=1200",
				"tiny": "https://images.pexels.com/photos/799443/pexels-photo-799443.jpeg?auto=compress&cs=tinysrgb&dpr=1&fit=crop&h=200&w=280"
			},
			"alt": "Forced Perspective Photography of Cars Running on Road Below Smartphone"
		},
		{
			"id": 244206,
			"width": 6000,
			"height": 3376,
			"url": "https://www.pexels.com/photo/blue-audi-sedan-parked-near-forest-244206/",
			"photographer": "Mike B",
			"photographer_url": "https://www.pexels.com/@mikebirdy",
			"photographer_id": 20649,
			"avg_color": "#777784",
			"src": {
				"original": "https://images.pexels.com/photos/244206/pexels-photo-244206.jpeg",
				"large2x": "https://images.pexels.com/photos/244206/pexels-photo-244206.jpeg?auto=compress&cs=tinysrgb&dpr=2&h=650&w=940",
				"large": "https://images.pexels.com/photos/244206/pexels-photo-244206.jpeg?auto=compress&cs=tinysrgb&h=650&w=940",
				"medium": "https://images.pexels.com/photos/244206/pexels-photo-244206.jpeg?auto=compress&cs=tinysrgb&h=350",
				"small": "https://images.pexels.com/photos/244206/pexels-photo-244206.jpeg?auto=compress&cs=tinysrgb&h=130",
				"portrait": "https://images.pexels.com/photos/244206/pexels-photo-244206.jpeg?auto=compress&cs=tinysrgb&fit=crop&h=1200&w=800",
				"landscape": "https://images.pexels.com/photos/244206/pexels-photo-244206.jpeg?auto=compress&cs=tinysrgb&fit=crop&h=627&w=1200",
				"tiny": "https://images.pexels.com/photos/244206/pexels-photo-244206.jpeg?auto=compress&cs=tinysrgb&dpr=1&fit=crop&h=200&w=280"
			},
			"alt": "Blue Audi Sedan Parked Near Forest"
		},
		{
			"id": 638479,
			"width": 5155,
			"height": 3428,
			"url": "https://www.pexels.com/photo/red-car-head-light-638479/",
			"photographer": "Vraj Shah",
			"photographer_url": "https://www.pexels.com/@vraj-shah-115200",
			"photographer_id": 115200,
			"avg_color": "#763332",
			"src": {
				"original": "https://images.pexels.com/photos/638479/pexels-photo-638479.jpeg",
				"large2x": "https://images.pexels.com/photos/638479/pexels-photo-638479.jpeg?auto=compress&cs=tinysrgb&dpr=2&h=650&w=940",
				"large": "https://images.pexels.com/photos/638479/pexels-photo-638479.jpeg?auto=compress&cs=tinysrgb&h=650&w=940",
				"medium": "https://images.pexels.com/photos/638479/pexels-photo-638479.jpeg?auto=compress&cs=tinysrgb&h=350",
				"small": "https://images.pexels.com/photos/638479/pexels-photo-638479.jpeg?auto=compress&cs=tinysrgb&h=130",
				"portrait": "https://images.pexels.com/photos/638479/pexels-photo-638479.jpeg?auto=compress&cs=tinysrgb&fit=crop&h=1200&w=800",
				"landscape": "https://images.pexels.com/photos/638479/pexels-photo-638479.jpeg?auto=compress&cs=tinysrgb&fit=crop&h=627&w=1200",
				"tiny": "https://images.pexels.com/photos/638479/pexels-photo-638479.jpeg?auto=compress&cs=tinysrgb&dpr=1&fit=crop&h=200&w=280"
			},
			"alt": "Red Car Head Light"
		},
		{
			"id": 315938,
			"width": 6000,
			"height": 4000,
			"url": "https://www.pexels.com/photo/light-trails-on-highway-at-night-315938/",
			"photographer": "Pixabay",
			"photographer_url": "https://www.pexels.com/@pixabay",
			"photographer_id": 2659,
			"avg_color": "#182435",
			"src": {
				"original": "https://images.pexels.com/photos/315938/pexels-photo-315938.jpeg",
				"large2x": "https://images.pexels.com/photos/315938/pexels-photo-315938.jpeg?auto=compress&cs=tinysrgb&dpr=2&h=650&w=940",
				"large": "https://images.pexels.com/photos/315938/pexels-photo-315938.jpeg?auto=compress&cs=tinysrgb&h=650&w=940",
				"medium": "https://images.pexels.com/photos/315938/pexels-photo-315938.jpeg?auto=compress&cs=tinysrgb&h=350",
				"small": "https://images.pexels.com/photos/315938/pexels-photo-315938.jpeg?auto=compress&cs=tinysrgb&h=130",
				"portrait": "https://images.pexels.com/photos/315938/pexels-photo-315938.jpeg?auto=compress&cs=tinysrgb&fit=crop&h=1200&w=800",
				"landscape": "https://images.pexels.com/photos/315938/pexels-photo-315938.jpeg?auto=compress&cs=tinysrgb&fit=crop&h=627&w=1200",
				"tiny": "https://images.pexels.com/photos/315938/pexels-photo-315938.jpeg?auto=compress&cs=tinysrgb&dpr=1&fit=crop&h=200&w=280"
			},
			"alt": "Light Trails on Highway at Night"
		},
		{
			"id": 39855,
			"width": 2560,
			"height": 1920,
			"url": "https://www.pexels.com/photo/yellow-sports-car-during-day-time-39855/",
			"photographer": "Pixabay",
			"photographer_url": "https://www.pexels.com/@pixabay",
			"photographer_id": 2659,
			"avg_color": "#9B8F79",
			"src": {
				"original": "https://images.pexels.com/photos/39855/lamborghini-brno-racing-car-automobiles-39855.jpeg",
				"large2x": "https://images.pexels.com/photos/39855/lamborghini-brno-racing-car-automobiles-39855.jpeg?auto=compress&cs=tinysrgb&dpr=2&h=650&w=940",
				"large": "https://images.pexels.com/photos/39855/lamborghini-brno-racing-car-automobiles-39855.jpeg?auto=compress&cs=tinysrgb&h=650&w=940",
				"medium": "https://images.pexels.com/photos/39855/lamborghini-brno-racing-car-automobiles-39855.jpeg?auto=compress&cs=tinysrgb&h=350",
				"small": "https://images.pexels.com/photos/39855/lamborghini-brno-racing-car-automobiles-39855.jpeg?auto=compress&cs=tinysrgb&h=130",
				"portrait": "https://images.pexels.com/photos/39855/lamborghini-brno-racing-car-automobiles-39855.jpeg?auto=compress&cs=tinysrgb&fit=crop&h=1200&w=800",
				"landscape": "https://images.pexels.com/photos/39855/lamborghini-brno-racing-car-automobiles-39855.jpeg?auto=compress&cs=tinysrgb&fit=crop&h=627&w=1200",
				"tiny": "https://images.pexels.com/photos/39855/lamborghini-brno-racing-car-automobiles-39855.jpeg?auto=compress&cs=tinysrgb&dpr=1&fit=crop&h=200&w=280"
			},
			"alt": "Yellow Sports Car during Day Time"
		},
		{
			"id": 707046,
			"width": 4071,
			"height": 2714,
			"url": "https://www.pexels.com/photo/photo-of-white-bmw-e46-707046/",
			"photographer": "Trace Constant",
			"photographer_url": "https://www.pexels.com/@trace",
			"photographer_id": 223030,
			"avg_color": "#7E919A",
			"src": {
				"original": "https://images.pexels.com/photos/707046/pexels-photo-707046.jpeg",
				"large2x": "https://images.pexels.com/photos/707046/pexels-photo-707046.jpeg?auto=compress&cs=tinysrgb&dpr=2&h=650&w=940",
				"large": "https://images.pexels.com/photos/707046/pexels-photo-707046.jpeg?auto=compress&cs=tinysrgb&h=650&w=940",
				"medium": "https://images.pexels.com/photos/707046/pexels-photo-707046.jpeg?auto=compress&cs=tinysrgb&h=350",
				"small": "https://images.pexels.com/photos/707046/pexels-photo-707046.jpeg?auto=compress&cs=tinysrgb&h=130",
				"portrait": "https://images.pexels.com/photos/707046/pexels-photo-707046.jpeg?auto=compress&cs=tinysrgb&fit=crop&h=1200&w=800",
				"landscape": "https://images.pexels.com/photos/707046/pexels-photo-707046.jpeg?auto=compress&cs=tinysrgb&fit=crop&h=627&w=1200",
				"tiny": "https://images.pexels.com/photos/707046/pexels-photo-707046.jpeg?auto=compress&cs=tinysrgb&dpr=1&fit=crop&h=200&w=280"
			},
			"alt": "Photo of White Bmw E46 "
		},
		{
			"id": 909907,
			"width": 3805,
			"height": 2854,
			"url": "https://www.pexels.com/photo/black-audi-a-series-parked-near-brown-brick-house-909907/",
			"photographer": "Alex Amorales",
			"photographer_url": "https://www.pexels.com/@alex-amorales-321095",
			"photographer_id": 321095,
			"avg_color": "#847F7C",
			"src": {
				"original": "https://images.pexels.com/photos/909907/pexels-photo-909907.jpeg",
				"large2x": "https://images.pexels.com/photos/909907/pexels-photo-909907.jpeg?auto=compress&cs=tinysrgb&dpr=2&h=650&w=940",
				"large": "https://images.pexels.com/photos/909907/pexels-photo-909907.jpeg?auto=compress&cs=tinysrgb&h=650&w=940",
				"medium": "https://images.pexels.com/photos/909907/pexels-photo-909907.jpeg?auto=compress&cs=tinysrgb&h=350",
				"small": "https://images.pexels.com/photos/909907/pexels-photo-909907.jpeg?auto=compress&cs=tinysrgb&h=130",
				"portrait": "https://images.pexels.com/photos/909907/pexels-photo-909907.jpeg?auto=compress&cs=tinysrgb&fit=crop&h=1200&w=800",
				"landscape": "https://images.pexels.com/photos/909907/pexels-photo-909907.jpeg?auto=compress&cs=tinysrgb&fit=crop&h=627&w=1200",
				"tiny": "https://images.pexels.com/photos/909907/pexels-photo-909907.jpeg?auto=compress&cs=tinysrgb&dpr=1&fit=crop&h=200&w=280"
			},
			"alt": "Black Audi A-series Parked Near Brown Brick House"
		}
	],
	"total_results": 8000,
	"next_page": "https://api.pexels.com/v1/search/?page=2&per_page=15&query=cars"
}
